com\mycompany\invoise\core\repository\InvoiceRepositoryInterface.class
com\mycompany\invoise\core\entity\Address.class
com\mycompany\invoise\core\entity\Category.class
com\mycompany\invoise\core\service\number\InvoiceServiceNumber.class
com\mycompany\invoise\core\controller\InvoiceControllerInterface.class
com\mycompany\invoise\core\entity\Customer.class
com\mycompany\invoise\core\App.class
com\mycompany\invoise\core\entity\InvoiceLine.class
com\mycompany\invoise\core\service\InvoiceServiceInterface.class
com\mycompany\invoise\core\entity\Invoice.class
com\mycompany\invoise\core\service\prefix\InvoiceServicePrefix.class
com\mycompany\invoise\core\controller\scan\InvoiceControllerDouchette.class
com\mycompany\invoise\core\controller\keyboard\InvoiceControllerKeyboard.class
com\mycompany\invoise\core\entity\Product.class
